dump.vcd
$date
	Sun May  8 01:15:22 2022
$end
$version
	Icarus Verilog
$end
$timescale
	1s
$end
$scope module DualPortRam_tb $end
$var wire 32 ! q [31:0] $end
$var reg 1 " clk $end
$var reg 32 # dataIn [31:0] $end
$var reg 5 $ rAddr [4:0] $end
$var reg 5 % wAddr [4:0] $end
$var reg 1 & we $end
$var integer 32 ' i [31:0] $end
$scope module DualPortRam_dut $end
$var wire 1 " clk $end
$var wire 32 ( dataIn [31:0] $end
$var wire 5 ) rAddr [4:0] $end
$var wire 5 * wAddr [4:0] $end
$var wire 1 & we $end
$var reg 32 + q [31:0] $end
$var integer 32 , i [31:0] $end
$upscope $end
$upscope $end
$scope module DualPortRam_tb $end
$scope module DualPortRam_dut $end
$upscope $end
$upscope $end
$enddefinitions $end
#0
$dumpvars
b100000 ,
b0 +
b0 *
b0 )
b0 (
b0 '
1&
b0 %
b0 $
b0 #
0"
b0 !
$end
#20
b11011110101011011011111011101111 #
b11011110101011011011111011101111 (
#40
1"
#60
b11111111111111111111111111111111 #
b11111111111111111111111111111111 (
b1 %
b1 *
b1 '
0"
#80
b11011110101011011011111011101111 !
b11011110101011011011111011101111 +
1"
#100
b110000001111111111101110 #
b110000001111111111101110 (
b10 %
b10 *
b10 '
0"
#120
1"
#140
b11111111111111111111111111111111 #
b11111111111111111111111111111111 (
b11 %
b11 *
b11 '
0"
#160
1"
#180
b10111010110111110000000000001101 #
b10111010110111110000000000001101 (
b100 %
b100 *
b100 '
0"
#200
1"
#220
b11111111111111111111111111111111 #
b11111111111111111111111111111111 (
b101 %
b101 *
b101 '
0"
#240
1"
#260
b11001010111111101011101010111110 #
b11001010111111101011101010111110 (
b110 %
b110 *
b110 '
0"
#280
1"
#300
b11111111111111111111111111111111 #
b11111111111111111111111111111111 (
b111 %
b111 *
b111 '
0"
#320
1"
#340
b1000 %
b1000 *
b1000 '
0"
#360
1"
#380
b1001 %
b1001 *
b1001 '
0"
#400
1"
#420
0&
b0 '
0"
#440
1"
#460
b1 $
b1 )
b1 '
0"
#480
b11111111111111111111111111111111 !
b11111111111111111111111111111111 +
1"
#500
b10 $
b10 )
b10 '
0"
#520
b110000001111111111101110 !
b110000001111111111101110 +
1"
#540
b11 $
b11 )
b11 '
0"
#560
b11111111111111111111111111111111 !
b11111111111111111111111111111111 +
1"
#580
b100 $
b100 )
b100 '
0"
#600
b10111010110111110000000000001101 !
b10111010110111110000000000001101 +
1"
#620
b101 $
b101 )
b101 '
0"
#640
b11111111111111111111111111111111 !
b11111111111111111111111111111111 +
1"
#660
b110 $
b110 )
b110 '
0"
#680
b11001010111111101011101010111110 !
b11001010111111101011101010111110 +
1"
#700
b111 $
b111 )
b111 '
0"
#720
b11111111111111111111111111111111 !
b11111111111111111111111111111111 +
1"
#740
b1000 $
b1000 )
b1000 '
0"
#760
1"
#780
b1001 $
b1001 )
b1001 '
0"
#800
1"
#820
b1010 '
0"
